{
  "spaces": [
    {
      "name": "Milano Hall",
      "floor": 1,
      "schema": "/src/assets/photos/bedroom-outlines.jpg"
    },
    {
      "name": "Varna Hall",
      "floor": 2,
      "schema": "/src/assets/photos/FloorPlan-Hero2.jpg"
    },
    {
      "name": "Varna Hall",
      "floor": 2,
      "schema": "/src/assets/photos/FloorPlan_Hero3.jpg"
    },
    {
      "name": "San Francisco Hall",
      "floor": 2,
      "schema": "/src/assets/photos/FloorPlan-Hero.jpg"
    }
  ]
}
